repo: 8ba995b74e18334ab3707f27e9eb8f4e37ba3d29
node: 12a5ccd697026e9a98920b75ced36b5d81c1ad79
branch: default
latesttag: FIREFOX_102_1_0esr_BUILD1
latesttag: FIREFOX_102_1_0esr_RELEASE
latesttagdistance: 16
changessincelatesttag: 16
